<svg fill="none" xmlns="http://www.w3.org/2000/svg">
	<foreignObject width="100%" height="100%">
		<div xmlns="http://www.w3.org/1999/xhtml">
<style>
td, th {
   border: none!important;
}
</style>

<table style="border: none!important;">
    <tr style="border: none!important;">
        <th style="border: none!important;">  <a href="https://github.com/anuraghazra/github-readme-stats"> <img align="center" src="https://bit.ly/38HX4SC" /> </a> 
        </th>
        <th style="border: none!important;">
            <img src="https://bit.ly/3h0pDiu" />
        </th>
    </tr>
</table>

<h1>Dot Repos</h1>

<table>
    <tr>
        <th><a href="https://github.com/sortedcord/Gruvbox-Pink-Dots">  <img align="center" src="https://bit.ly/3n3T86L" /> </a></th>
        <th><a href="https://github.com/sortedcord/Sortify">    <img align="center" src="https://bit.ly/3tdcHeb" /> </a></th>
    </tr>
    <tr>
        <th><a href="https://github.com/sortedcord/sweet-mars-i3"> <img align="center" src="https://bit.ly/3DMsu8p" /> </a></th>
        <th><a href="https://github.com/sortedcord/Dracula"> <img align="center" src="https://bit.ly/3jJdhNJ" /> </a></th>
    </tr>
</table>

<h1>Notes Repos</h1>

<table>
    <tr>
        <th> <a href="https://github.com/sortedcord/vue-notes">  <img align="center" src="https://bit.ly/3BDpQjy" /> </a></th>
        <th> <a href="https://github.com/sortedcord/anglular-notes">    <img align="center" src="https://bit.ly/3DOB3ji" />   </a></th>
    </tr>
</table>

		</div>
	</foreignObject>
</svg>